id,name
972830059,Spencer Eaton
921868957,Hannah Gallegos
926822598,Amanda French
949860926,David Smith
909968252,Angela Branch
939988578,Daniel Rodriguez
987925557,Kimberly Harrison
990817167,Curtis Washington
969917766,Samantha Rodgers
967740086,Paul Mason
914929797,Scott Clark
951985472,Carmen Stewart
935879483,Cassandra Freeman
975864160,Christian Cox
979802909,Thomas Sharp
987976931,Richard Smith
947955486,Karen Williams
951753770,Samantha Phillips
930907909,Michelle Thomas
954729192,Christy Aguirre
942915712,Heather West
949913337,Megan Rodriguez
997969469,Robert Johnson
941942166,Christy Mckee
942912030,Becky Roberts
900847779,Sherry Williams
946798009,Cynthia Baker
905728917,Andrea Christensen
903785572,Elizabeth Henry
951772199,Eileen Brown
949854443,Jennifer Horton
944781200,Kayla Glover
986916947,Damon Beasley
969814929,Kelly Newton
907860390,Luis Robertson
956803492,Katrina Burns
974795513,Amy Parks
926817931,Tammy Diaz
913806108,Eric Hernandez
959779148,David Wilkins
940921522,Robert Boyer
995777678,Kathy Chang
928814811,Christine Martinez
965740530,Daniel Young
926795250,Nicole Jones
962865135,Rachel Williams
991987817,Diana Martinez
996809189,Jonathan Lewis
900787257,Jeremy Sullivan
932865961,Anthony Mccarty
903705700,Jeremy Wall
963952048,Sean Wilson
949771821,Amy Kerr
983881753,Curtis Wilson
947725225,Brian Johnson
928700976,Vickie Hicks
904900786,Kelsey Adkins
907907112,Jason Mercado
961912524,Anthony Barnett
986924822,Kyle Harrison
949782360,Beth Maddox
960998644,Kerry Thomas
907778540,Evan Randall
912971447,Anthony White
939701733,Juan Gates
960772600,Aaron Woods
943738458,Carla Rosales
908852970,Lindsay Martin
929990413,Jacob Webb
982753351,James Jackson
991778447,Katelyn Weber
963990582,Patrick Anderson
919780021,Jennifer Meyer
987790824,Julie Gillespie
946993232,Debra George
941856289,James Barron
989758736,Hayden Myers
986991502,Marco Matthews
901756633,Robert Holmes
999824033,Christopher Jones
982963676,Dustin Jones
929981330,Brandy Oliver
927971167,Nancy Davenport
967787056,Shannon Taylor
918756423,Shawn Green
973961974,Cassandra Stevenson
947710995,Michelle Carpenter
908889179,Shannon Washington
907704658,Taylor Baker
913713311,Tracy Phillips
953943343,Ashley King
985920850,Brandy Burnett
954784092,Brandon Edwards
944809995,Robin Cortez
906827100,Jeffrey Smith
916993038,Tiffany Webster
926903740,Brian Garcia
971765883,Monica Hayes
958780961,John Ellis
971903988,Donald Johnston
992844796,Charles Christensen
985773565,Susan Mason
917928443,Pamela Shaw
941830481,Audrey Medina
987948136,Jeremiah Lamb
920822692,Robert Young
999974236,Carly Hall
977960013,Jessica Robinson
931787470,Jim Johnson
945701515,Nicholas Pratt
982998729,Monica Williams
981713296,Monica Gibbs
945764153,Courtney Cox
990870274,James Swanson
900727504,Tamara Bowen
968720793,John Wright
996971139,Linda Cochran
918802857,Steven Pennington
998817332,Michelle Mercado
932716249,Sandra Wilson
904737158,Jessica Mendoza
996797001,Lori Savage
928850408,Monique Martin
960978562,Christine Smith
944995393,William Hernandez
976710418,Anthony Henry
914851999,Scott Cummings
968821779,Kenneth Santana
919744092,Brent Howell
946907735,Tiffany Douglas
925721992,Daniel Osborn
960774324,Sandra Walsh
993778713,Rebecca Dickson
901841145,Oscar Silva
950871221,Megan Hopkins
952764175,Dale Andrews
961986795,Tonya Simmons
992852959,Steven White
976863778,Anthony Murillo
972907369,Timothy Park
901883530,Larry Henderson
900795465,Jessica Hughes
975921110,Angela Chase
936975014,Regina Miranda
925884150,Dana Simmons
902725621,Corey Miranda
905980773,Daniel Aguilar
962842004,Christina Myers
988830183,James Whitney
914973793,Adam Ryan
999716615,Jermaine Atkinson
996841026,Robert Harrington
962844621,Kathleen Richardson
950990019,Laura James
917799819,Ashley Hutchinson
978740646,Samuel Chavez
901705320,Christina Jackson
901992636,Michael Taylor
954841893,Brandon Roberts
960735715,Emily Snyder
951908399,Jennifer Thomas
908866145,Jeffrey Bell
987816969,Kristen Moran
938942103,Kyle Jones
998808266,Matthew Tucker
981960204,Erin Hayes
997766601,Christy Newman
934848650,Randy Mueller
915986505,Sue Williams
986842702,Jeremy Garrett
945825927,Joel Mitchell
925906376,Timothy Gomez
934873561,Stephen James
961987317,Debra Sullivan
975756927,Emily English
939745281,Megan Jennings
940789304,Denise Simmons
961839454,Karen King
975954778,Manuel Phillips
954733713,Glenn Sampson
926766820,Kaitlyn Allen
997800029,Steven Cordova
935869407,Patrick Mullen
937848325,Christopher Serrano
941868044,Faith Guzman
967802136,Nancy Weber
950992149,Timothy Snyder
976725463,Nancy Jones
965791698,Lee Martinez
928832151,Brittany Graham
995735391,Janet Orozco
934727771,Jasmine Henry
915808063,Julia Brown
905919380,Erica Wong
913885638,Samantha Hill
988701216,Dennis Acosta
973847571,Christopher Ferguson
949808835,Gregory Kelly
908915246,Frank Alvarado
946873019,Amanda Hurst
918993869,Lindsey Fox
923985293,Alexandria Fox
937949090,Mark Martin
910879893,Rodney Holmes
940782317,Cameron Miller
939729789,Chad Richard
962836624,Paula Wright
920904388,Micheal Tran
992824270,Cheyenne Washington
963762870,Brandon Harris
977915768,Elizabeth Martin
912726491,Carlos Holmes
997994029,Mark Morrison
936709820,Debbie Cowan
988773630,Victoria Mejia
997909219,David Gross
952716358,Kimberly Walls
942782246,Nancy Kelly
981818600,Melissa Wolf
959970271,Jerome Massey
908719034,Michele Hansen
982717003,Judith Carroll
923850506,Megan Pierce
958836024,Erica Rodriguez
971996046,Michelle Frederick
906793171,William Jackson
971876408,Ashley Mcguire
971951160,Michael Delgado
972832275,Kelli Gonzalez
938705916,Timothy May
996733606,Mary Mills
922873770,Jacob Bush
928921153,Lucas Skinner
979786077,Christopher Kelley
979982096,Carlos Mcdonald
944733571,Joshua Tyler
918715332,Jason Alexander
917838643,Rebecca Warren
900963952,Megan Thomas
939792168,Anna Rodriguez
975950624,Scott Hall
919728309,Christine Thompson
906746268,Kylie Cantrell
977907895,Wanda Lewis
911823157,Dillon Lambert
992833538,Brandon Wallace
964988088,Michael Williams
944951127,Kimberly Moore
988923064,Holly Brown
935987282,Erin Mosley
989967462,Matthew Williams
915925576,Jesse Howell
942903425,Bethany Jennings
908754813,Teresa King
973873733,Richard Burke
947922684,Tammy Pena
908918869,Cameron Hughes
984905978,Daniel Jacobson
995777890,Valerie Brown
931799370,Erin Hopkins
956764297,Barbara Austin
901768975,Christine Lewis
993814696,Bruce Hutchinson
955940879,Dean Hines
970776875,Alexander Hays
948797615,Jeff Miller
915765013,Abigail Ramirez
968805451,Jeremy Rodgers
936981304,Nicholas Brown
986790383,Norma Anderson
958913157,Marcus Howard
950799694,Angelica Chen
909917518,John Garrison
901957296,Chelsea Roberts
981865137,Taylor Rivera
913798171,Lisa Turner
915739003,Karen Fox
985817174,John Jackson
942987157,Devin Thompson
962727848,Carl Carroll
924775275,Marcus Preston
985909339,Nicholas Bryant
963779637,Kenneth Robinson
932751765,Kim Stewart
916778520,Laura Stevenson
918912329,Frank Ferrell
958801880,Tom Chapman
974746109,Margaret Thomas
973909495,Erik Watson
967702621,Justin Taylor
997762083,Kim Greene
942826758,Debra Simon
966732415,Mark Joyce
974805632,Gabriela Jones
919967465,Mary Wilson
933940968,John Kane
916952269,James Taylor
915820588,William Parks
925848463,Stacy Morgan
995806956,Elizabeth Larson
958772460,Lori Owens
998745602,Jeffrey Rosario
930727722,William Carter
970999451,Heather Hicks
987751218,Brittany Smith
991732401,Rebekah Bullock
985755720,Tommy Rodriguez
970863272,Arthur Aguilar
971956444,Stephen Williams
919980269,John Lin
987918222,Kimberly Chavez
935873712,Zachary Decker
937750661,Daniel Watson
927744722,Rhonda Johnson
988951495,Laura Mcknight
969839011,Jamie Mendez
928851407,Jessica Smith
935954767,Allen Pruitt
906855669,Hannah Gonzalez
981917378,Zachary Smith
947712922,Dominique Hancock
910772130,Joel Brown
989813261,Julie Alvarez
925953157,Michelle Davis
921790001,Michael Hutchinson
905791423,Darryl Carey
954999537,Jason Webster
945883612,Scott Hickman
915815875,Lisa Morris
952825295,Amanda Wolf
952955462,Frank Cummings
926794917,Virginia Hartman
901954493,Peter Espinoza
953956420,David Stevens
953955737,Thomas Ramsey
980913563,Rachel Collins
970908462,Anthony Ramsey
984805876,Heather Gordon
993921527,Kevin Cruz
933967878,Daniel Landry
924797745,Keith Farrell
929983688,Derek Johnson
968710854,Jeffery Brooks
914724619,Miranda Shaw
926748138,Janet Anderson
988770563,Melanie Anderson
974924638,Amber Johnson
900759783,Joshua Fletcher
957960852,Meredith Valencia
973923569,Manuel Shannon
930716653,Sergio Diaz
972960309,Alexander Holmes
909728022,Lawrence Robinson
955851620,Gary Robertson
900965612,Alexander Martin
978922785,Rebecca Burns
938703972,Natasha Lucas
998924339,Matthew Hayes
917826861,Jeffrey Williams
926785695,Michael Johnston
993916732,Brian Lopez
901877585,Katherine Escobar
912911258,Billy Stephens
970850608,Margaret Baxter
903997359,Kelly Duffy
953735309,Brian Nunez
960811084,Alejandro Nielsen
923877481,Christopher Roth
932850730,Joshua Thompson
904725431,Eric Greene
919754984,Ian Jackson
981743412,Dawn Hensley
991878790,Andrea Sutton
931843580,David Cook
973838542,John Little
933773516,Derrick Brown
999700510,Kathleen Richards
935777379,Kelly Hernandez
983821498,Alexis Randall
956781612,Paul David
933717263,Joshua Bowman
937748539,Mary Simpson
993945405,Amber Carroll
905876099,Marissa Carr
990882483,Kayla Johnson
959945621,Nichole Campbell
965979044,Diana Hamilton
995818432,Lawrence Black
925955442,Wyatt Thomas
906996681,Levi Davis
922966960,Stephen Perez
934811794,Gary Miller
962758673,Robert Nguyen
912800228,Karen Baker
970906915,Gregory Baxter
936781237,Zachary Baldwin
931902045,Anthony Williams
955753712,Brittany Martin
914764188,Robert Byrd
917887586,Brandon Potter
906776190,Richard Hughes
904745640,Bruce Jones
908764178,Elizabeth Chapman
986737609,Doris Fox
953720281,Robert Hardy
928778832,Austin Mcguire
926852703,Ronald Sanders
983808716,Patrick Robertson
964779359,Cheryl Clark
947834333,Jeffrey Thompson
906807626,Laurie Lang
968924431,Mary Patrick
929726985,Amber King
965733007,Ruth Watson
986864301,Christopher Francis
914759987,Tanya Lee
996969527,Carol Booker
954945157,Heather Chase
970987494,Leslie Baldwin
977758128,Lauren Arnold
952867287,William Palmer
974916891,Sarah Thomas
910879888,Sharon Wong
941964993,Kimberly Lara
965704415,Meghan Johnson
974719295,Shaun Martinez
955762862,Calvin Zimmerman
941721134,Jill Allen
927927099,Tony Young
998957670,Judith Harris
935778908,Deborah Tran
924900850,Mary Snyder
936880300,Paul Buchanan
962841300,Miranda Smith
949995352,Dustin Tucker
944741491,Brandon Lee
905874964,Joseph Myers
906950585,Cassandra Kelley
933985686,Jason Duran
967904666,Meagan Wood
909861638,Robin Bradley
973961900,James Hernandez
906770621,Melissa Wheeler
983989639,Matthew Joyce
957942088,Amy White
900925052,Amy Barnes
958864354,Teresa Paul
923744758,Andrea White
997741114,Michael Henderson
908859822,Shannon Graham
953972966,Christopher Thomas
965945535,Anita Mitchell
998882305,Shelly Velez
979815488,Mary Barrett
963975875,Michelle West
960707051,Dana Stanley
979965972,John Roberts
962796556,Jim Jefferson
984730576,Kelly Hayes
927722352,Joan Lawrence
918740106,Jonathan White
912832973,Andrew Ferguson
993787759,Cassandra Walker
969942649,William Williams
990736311,Cheryl Moore
915966605,Stephanie Baldwin
989756142,Amber Martin
906845771,Cynthia Harris
913806733,Tiffany Perez
938759794,Patricia Barrett
960908739,Nicole Parker
902917409,William Nunez
906983714,Brian Nunez
993833668,Stephen Nelson
966977196,Ryan Knight
968803821,Jonathan Smith
941724250,Kevin Smith
968991005,Grace Palmer
919844140,Cindy Hart
998762109,John Fox
985753414,Gabriela Robertson
911905918,Michelle Colon
934983847,Alison English
990848344,Whitney Burton
987961618,Cynthia Yoder
932813685,Maria Tran
955823994,Jeremy Wells
999954267,Robert Parks
951841705,Ronald Parks
927869339,Andrew Smith
912977575,Tyler Nguyen
998916428,Angela Porter
994728288,Tiffany Baker
917924885,Joseph Butler
977734273,Amanda Nunez
917802348,Holly Thomas
964888085,Felicia Clark
905888444,Blake Higgins
931888333,Nicole Reed
988779677,Jacqueline Riley
909849458,Brooke Davis
936835150,Carlos Lopez
965797249,Dennis Wright
996916111,Michael Jackson
989876935,Kirk Cruz
990804340,Laura Lopez
945988485,Melvin Collins
939810365,Pamela Cantrell
935745773,Paul Coleman
966720290,Daniel Garcia
948820893,Jose Rangel
918839039,Jose Morales
940816493,Jessica Sims
951710133,Joseph Miller
952838142,Norman Jones
918824340,Eric Bailey
989993397,Christopher Allen
980889894,Alyssa Kelley
917718779,Taylor Crane
931849555,Andrew Watkins
988735580,Jacob Armstrong
920906824,Justin Washington
982887973,Cynthia Joseph
931832222,Morgan Collins
916924802,Alexa Marsh
957916689,Erica Johnson
934884036,Jared Benson
974780813,David Williams
960709748,Aaron Nguyen
970998282,Joseph Reyes
959987609,Scott Webb
989859931,Jonathan Powell
906848265,Janet Stone
950993592,Travis Flores
944717218,Sara Smith
948732670,Susan Cowan
953752440,Lisa Shah
939784680,Blake Flynn
995721089,Katherine Parker
954905591,Diane Johnson
927959717,Michele Vazquez
970920894,Zachary Martinez
963752682,Shelley Evans
910746371,Michelle Barker
926851083,Matthew Vance
999812677,Joseph Henry
956908991,Caitlyn Griffin
903907507,Michael Howard
943817617,Kristen Ford
950855631,Sharon Sloan
980762750,Jason Adams
937908760,Matthew Williams
919825885,Charles Alexander
976984123,Leslie Lang
969818349,Lisa Ruiz
973925172,Audrey Vasquez
938863920,David Nicholson
979786167,Cassandra Pratt
926832002,Matthew Richards
950768696,Jeremy Tanner
934862259,Carrie Johnson
934875269,Thomas Weaver
977908205,Elizabeth Gordon
935740916,Kimberly Day
946759210,Kayla Harris
989847125,Lisa Davidson
928982343,Noah Mcdonald
969957677,Lisa Rollins
986713252,Taylor Jones
949800547,Jennifer Murray
938946654,Brandy Rodriguez
946815423,Gary Thompson
921805801,Christopher Brown
985718500,Alex Day
948886044,Steven Long
996770533,Joshua Owens
927714720,Reginald Alexander
910841141,David Wilkinson
986983780,Dylan Martinez
900794060,Theresa Frye
908995755,Stanley Scott
924957782,Sharon Zuniga
903779962,Patricia Chapman
924962990,Rebecca Johnson
931994147,Rebecca Hawkins
955835827,Christopher Johnson
930823445,Andrew Larsen
945918350,Heather Barton
976975402,Jessica Thomas
957797563,Tanya Thomas
921825627,Joseph Hernandez
905905226,Steven Hughes
917737150,Emily Mitchell
990950794,Lori Diaz
925737699,Tiffany Pearson
905752595,Tom Powers
900796034,John George
970881327,Tina Maldonado
942835682,Nathaniel Jackson
987924219,Patricia Rivera
909785985,Jessica Campbell
971741883,Scott Young
900870084,Natasha Thomas
954950561,Rebekah Roberson
968996242,Brad Ward
976905689,Scott Rowland
985902479,Kimberly Smith
981998979,Robert Moore
938984946,Stephanie Watkins
963959873,Christopher Castillo
956860910,Natalie Grant
935862508,Michael Gomez
986920504,Roger Rodriguez
910836497,Catherine White
974963960,Robert Brown
957822507,Erika Hodges
986940105,Nicholas Morton
993977435,Meghan Rogers
993884864,Robin Cox
906819138,Jeremy Stark
934848308,Amy Booth
914737234,Meagan Galloway
945798597,Cindy Barnes
962701484,Robert Church
903784469,Brad Hernandez
972801297,Richard Schroeder
939959261,Devin Peters
946953004,Randall Ray
934875618,Joyce Griffin
919752308,Victor Austin
956949868,Samantha Harvey
977861754,Joyce Rasmussen
996757299,Judy Cantu
916705273,Nicole Hernandez
936984736,Thomas Bowman
949953853,Susan James
979903035,Jamie Roman
905787900,Lori Ballard
950810157,Mary Campbell
925967656,Joyce Walter
988839472,Noah White
911777140,Steven Hernandez
914828947,Christopher Mitchell
944715498,Joseph Nichols
972832614,Ernest Esparza
970804326,Douglas Perez
971947093,Caleb Smith
938711587,Jessica Savage
964785736,Tyler Mendoza
991723632,Kenneth Campbell
995861474,Nicole Morgan
940713666,Martha Ramsey
939862294,Donald Love
939840041,Nicholas Chapman
915766610,Deanna Hendricks
917702796,Suzanne Brown
979796425,Kimberly Williams
924869888,Melissa Bender
965945779,Cheryl Vargas
919999214,Joshua Marks
988946423,Steven Flores
996908631,Charles Burton
956748922,Matthew Smith
969863512,Mark Gutierrez
903743069,Richard Sloan
975812402,Stephen Fields
938953940,Kelly Saunders
968840663,Michael Brown
990722829,Kimberly Hughes
944834059,Brian Thomas
969996661,Matthew Schneider
921965464,Veronica Contreras
957821278,Thomas Edwards
966735279,Carrie Preston
906848578,Paul White
911970352,Cody Gonzalez
932922902,Jose Ramirez
963751307,Nicholas Berry
963983573,Ellen Stokes
934762859,Valerie Hernandez
966954178,Lisa Gordon
947900112,Caitlin Hall
983959338,Angela Santiago
906721773,Stephen Fisher
981851739,Donald Clayton
986888560,Kelly Buchanan
967766550,John Bryant
976806845,Anna Bradley
920922611,Michael Rios
997868965,Keith Ramirez
939772444,Michael Hunter
902787843,Robert Cole
968729759,Lori Price
985861372,Doris Harding
910963920,Jennifer Lewis
988770201,Vincent Miller
931812887,William Hunter
986839447,David French
935943977,Madison Silva
958785425,Dawn Vincent
903726666,Angela Mendoza
978919327,Gina Anderson
929718850,Jeremy Kline
971846248,Brandon Love
972948245,Shawn Jacobs
996879465,Robert Simpson
943748184,Frances Brown
944712587,Tamara Sanchez
982832865,Anna Silva
946703327,Tina Garcia
994734526,Sara Young
991830293,Cody Hawkins
957843175,Howard Jones
933794345,Elizabeth Castillo
947713816,Courtney Taylor
946770115,Laura Allen
950811380,Megan Allen
978802506,Ellen Torres
944758406,Travis Olsen
919832698,Nathan Huang
976790243,Patricia Roberts
971739225,Mckenzie Smith
980886340,Dawn Galvan
980810091,Collin Lewis
914732418,Tina Davis
940987553,Anthony Morrow
928902469,Eric Jacobs
945785499,Caleb Lawrence
962980485,Philip Rocha
967711120,Darren Martin
983860691,Daniel Campbell
964995355,Glenn Dunn
972814749,Joseph Anderson
985716749,Thomas Scott
992926488,Keith Kirk
974803019,Michael Burton
940876690,Joseph Shaw
979926247,Donna Rose
983835711,Kyle Williams
923992037,Katherine Carter
916858054,Kelsey Ward
965719237,Robert Lewis
917778840,Vicki Chavez
913712622,Angela Mullen
948742243,Debbie Garcia
933982246,Susan Gomez
979952170,Matthew Brown
993984069,Bethany Wilson
954754294,Anna Rose
971767556,Paul Robinson
976957039,Ashley Long
978706160,Jacob Malone
900846450,Donald Rodriguez
917950541,Russell Carr
983814354,Erin Martinez
916971951,Sydney Arnold
999882356,Samantha Rollins
980908730,Jason Johnson
906767406,Cynthia Lane
921915660,Jose Castillo
940963058,Adam Smith
934738733,Charles Tran
967765467,Diana Sanchez
966750567,Desiree Herring
995808390,Jill Clark
940734587,Alan Adams
951827916,Bethany Macdonald
978957158,Justin Rush
953840173,Lisa Jenkins
963721337,Brandon Nguyen
963817073,Michael Morton
907968845,Johnny Mcclure
904773384,Gabriela Miller
930815128,Tamara Lopez
905888196,Craig Zavala
901705943,John Bowers
955789516,Todd Brown
907818102,Dana Hooper
943988523,Amber Wells
946921559,Kimberly Crawford
975886022,Clayton Munoz
918911982,Joseph Avila
932850726,Ronald Torres
968709436,Jennifer Ward
999983214,Martha Russell
953993095,Connor Bryant
961748623,Brenda Huynh
984742465,Leah Patel
956907161,Logan Brady
966990409,Seth Gonzalez
960957794,Angie Jones
960851148,Kristine Wade
916942064,Theresa Gordon
993833489,Jason Rodgers
998980722,Stephanie Dean
905959056,Brenda Santos
939706028,Mary Hall
972728389,Jacqueline Lyons
925960712,Rachel Mason
946994762,Ryan Wolfe
938745836,Carol Peterson
929785684,George Mckenzie
968850662,Earl Martin
947853268,Jessica Stanley
942969507,Sheena Sims
905762129,Alyssa Woods
938994847,Seth Harrison
972725022,William Peterson
941776537,Tiffany Beck
926786283,Kelly Dean
989824505,Jermaine Little
960719044,Autumn Allen
972842416,Anita Powers
916770928,Sarah Miller
930723929,Johnny Cantrell
979907458,Erin Riley
938912691,Amanda Jones
965732352,Rachel Ross
940983926,Cheryl Gonzalez
957800801,John Zhang
931997995,Jason Diaz
938758719,Patricia Mclean
997902484,Bryan Adams
937976084,Richard Boyer
982839386,Donald Rodriguez
964918577,Mark Adkins
962990053,Gabriel Brewer
949710995,Martin Parks
982759482,Alicia Turner
988807004,Margaret Butler
925780802,Michael Ponce
941971925,Meredith Mcdaniel
998755243,Rebecca Obrien
907799293,Kenneth Stanley
935963229,Sheryl Wong
973861860,Thomas Miller
957829785,Daniel Evans
983729643,Matthew Carter
932905579,Brent Flowers
947929517,Amanda Graham
955966356,Cheryl Bailey
984722572,Hannah Williams
962875534,Erica Johnson
952744037,Patrick Gilbert
967912131,Marcus Guzman
933823197,Mitchell Hood
994975960,Becky Armstrong
974876670,David Banks
970764368,Lisa Mueller
950843445,Jessica Cline
910718115,Christine Mcfarland
921792423,Brian Simon
915708496,Maxwell Thompson
933856476,Erin Guzman
956726923,Nathaniel Palmer
993951474,Larry Stokes
967741067,Jacqueline Castillo
935709478,Nina Murray
907834849,Daniel Green
958774348,Alexander Brown
931946815,Jackson Smith
971947079,Rebecca Williams
953995005,Alisha Morse
970714853,John Young
981802882,Jose Willis
938724950,Dennis Garcia
958866895,Kelly Webb
913752936,Alexis Johnson
997924708,Rachel Sandoval
927982908,Karen Jackson
996957464,Jonathan Pierce
960777458,Sarah Walters
980765843,Adrian Mills
980816940,Brendan Wallace
941822796,Andrew Johnson
940991977,Regina Harmon
952986554,Andrew Rivera
982840768,Lisa Knapp
902743967,Kendra Montgomery
935798303,Michael Long
938905946,Nancy Ramirez
931842044,Anthony Ayala
954754374,Stacy Schmidt
963808790,Amber Soto
940975420,Anthony Gonzales
978827318,Mike King
952862333,Linda Graham
963784265,Zachary Marshall
921749456,Amanda Calderon
977865009,Brittany Boyer
932928818,Dale Martinez
922782362,Patricia Scott
998702200,Michael Wolfe
915753059,Mark Herrera
925946739,Michael Alvarez
960717131,Deanna House
928885677,Jessica Jones
949833454,Valerie Thompson
958778083,James Paul
924763314,Marisa Parks
935732458,Michael Cortez
974758836,Jasmine Berry
985795369,Joshua Wallace
964957160,Joseph Wells
922855618,Kimberly Warren
931826123,Pamela Flores
935903685,Michael Caldwell
995746159,Randy Torres
906855714,John Mcfarland
903773522,Teresa Armstrong
907856470,Natasha Peterson
999967667,Roger Cantu
913736584,Dillon Jenkins
996958865,Nicholas Shaw
989953388,Lee Newman
947998763,Julie Berry
970760730,Ashley Collins
940840693,Andrea Wong
911735966,Kathy Grant
931909099,Jared Hood
995911500,David Wallace
911740376,Jesus Castro
902831946,Stephanie Figueroa
913703666,Bruce Carter
953956754,Julie Pennington
953799400,Kevin Smith
969739659,Becky Conrad
955700645,William Richardson
965855210,Vanessa Buckley
966770010,Allen Williams
998986179,Sherry Owens
968876801,Dustin Myers
942940478,Kevin Cruz
966776101,John Barnes
905875325,Eric Jackson
905801631,Jennifer Wilkins
995805405,Michael Clark
946756356,Christopher Collins
951859454,Christina Frederick
980787311,Martin Thomas
940980487,Christopher Cross
905887757,Jennifer Ray
952875185,Destiny Madden
946982362,Benjamin Elliott
917733518,Wendy Hoover
925862189,Kimberly Phillips
979913928,Heather Graham
985745603,Joel Jackson
905858175,Kenneth Clark
926918417,Marissa Johnson
923827196,Katrina Wall
980998572,Charles Johnson
918849539,Jesse Martin
946766435,Mary Rose
914857002,Erik Torres
948943861,Diana Dominguez
918922880,Mary Duffy
913790322,Christopher Warren
918962715,Maria Hernandez
925829804,Brittany Long
901812876,Lawrence Lin
984908915,Karen Ramsey
978733772,Omar Green
974759179,Carrie Wright
949915692,Margaret Reynolds
931875747,Ashley Byrd
928751175,Peter Thomas
910704555,Kelly Rodriguez
963762576,Lori Buck
976850547,Laura Gonzalez
906965669,Carrie Jones
958942529,Donald Robinson
905877658,Rebecca Martinez
980815177,Kelly Gomez
900782128,Heather Dalton
999854810,Alison Douglas
978976842,Eric Cook
946925775,Jamie Velasquez
900779707,Kevin Howell
925837040,Sheila Vargas
941721004,Craig Allen
901743129,Lisa Mcintyre
968878369,Brandi Mcdaniel
937980285,Matthew Compton
973729004,Bruce Walker
977922040,Jody Cobb
915793040,Angelica Long
900888256,Bradley Hardin
939833488,Jacob Haynes
980743820,Rebecca Garcia
947949919,Matthew Ellis
960788943,Kenneth Cox
988963251,Brenda Wells
926870694,Ashley Camacho
906915489,Leroy Ramirez
907845513,Brent Tate
905953715,Jeffrey Kane
945844505,Andrea Smith
942874093,Ryan Garcia
944833102,Gloria Lewis
